samplename	R1	R2
RNA_Middle_Gastrula	RNA_Middle_Gastrula/fastq/single_cell_RNA_Middle_Gastrula-read-1.fastq.gz	RNA_Middle_Gastrula/fastq/single_cell_RNA_Middle_Gastrula-read-3.fastq.gz
LTB2	LTB2/fastq/LTB2_-read-1.fastq.gz	LTB2/fastq/LTB2_-read-3.fastq.gz
LTB2_2	LTB2_2/fastq/LTB2coretest_-read-1.fastq.gz	LTB2_2/fastq/LTB2coretest_-read-3.fastq.gz
